${AnsiColor.MAGENTA}

__/\\\\\\\\\\\\_________/\\\\\\\\\\\_____/\\\________/\\\______/\\\\\\\\\____        
 _\/\\\////////\\\_____/\\\/////////\\\__\/\\\_____/\\\//_____/\\\\\\\\\\\\\__       
  _\/\\\______\//\\\___\//\\\______\///___\/\\\__/\\\//_______/\\\/////////\\\_      
   _\/\\\_______\/\\\____\////\\\__________\/\\\\\\//\\\______\/\\\_______\/\\\_     
    _\/\\\_______\/\\\_______\////\\\_______\/\\\//_\//\\\_____\/\\\\\\\\\\\\\\\_    
     _\/\\\_______\/\\\__________\////\\\____\/\\\____\//\\\____\/\\\/////////\\\_   
      _\/\\\_______/\\\____/\\\______\//\\\___\/\\\_____\//\\\___\/\\\_______\/\\\_  
       _\/\\\\\\\\\\\\/____\///\\\\\\\\\\\/____\/\\\______\//\\\__\/\\\_______\/\\\_ 
        _\////////////________\///////////______\///________\///___\///________\///__
                                                                                     
                                                                                     
                                                                                     
                                                                                     
                                                                                     
                                                                                     
                                                                                     
                                                                                     
                                                                                     

